// Jest Snapshot v1, https://goo.gl/fbAQLP

exports[`Rendering Layout renders ChatItem correctly 1`] = `
<div
  style={
    Object {
      "alignItems": "center",
      "display": "flex",
      "flexDirection": "column",
      "height": "80px",
      "justifyContent": "center",
      "textAlign": "center",
      "textDecoration": "none",
      "width": "100%",
    }
  }
>
  <div
    style={
      Object {
        "fontFamily": "Roboto",
        "fontWeight": "600",
        "padding": 6,
      }
    }
  >
    test
  </div>
  <div
    style={
      Object {
        "fontFamily": "Roboto",
        "fontWeight": "300",
      }
    }
  >
    48 years ago
  </div>
</div>
`;

exports[`Rendering Layout renders ChatMenu correctly 1`] = `
<div
  style={
    Object {
      "alignItems": "center",
      "flex": 1,
      "flexDirection": "column",
      "height": "100%",
      "justifyContent": "center",
      "maxWidth": "20%",
    }
  }
>
  <div
    style={
      Object {
        "alignItems": "center",
        "display": "flex",
        "flex": 1,
        "fontFamily": "Roboto",
        "fontSize": 16,
        "justifyContent": "center",
        "margin": 20,
      }
    }
  >
    no messages found
  </div>
</div>
`;

exports[`Rendering Layout renders InputArea correctly 1`] = `
<div
  style={
    Object {
      "alignItems": "center",
      "display": "flex",
      "flex": 1,
      "justifyContent": "center",
      "margin": 20,
    }
  }
>
  <div />
</div>
`;

exports[`Rendering Layout renders Messages correctly 1`] = `
<div
  style={
    Object {
      "alignItems": "center",
      "backgroundColor": "rgba(0,0,0,0.05)",
      "flex": 1,
      "flexDirection": "column",
      "height": "100%",
      "justifyContent": "center",
    }
  }
>
  <div
    style={
      Object {
        "backgroundColor": "white",
        "justifyContent": "center",
        "margin": 2,
        "maxWidth": "100%",
      }
    }
  >
    <div
      style={
        Object {
          "display": "flex",
          "flex": 1,
          "flexDirection": "column",
          "height": "80vh",
          "overflowY": "scroll",
        }
      }
    >
      <div
        style={
          Object {
            "alignItems": "center",
            "display": "flex",
            "flex": 1,
            "fontFamily": "Roboto",
            "fontSize": 26,
            "justifyContent": "center",
          }
        }
      >
        No chats yet!
      </div>
    </div>
  </div>
  <div
    style={
      Object {
        "alignItems": "center",
        "display": "flex",
        "flex": 1,
        "justifyContent": "center",
        "margin": 20,
      }
    }
  >
    <div
      style={
        Object {
          "display": "flex",
          "flex": 1,
          "flexDirection": "row",
        }
      }
    >
      <input
        className="form-control"
        id={undefined}
        onChange={[Function]}
        type="text"
        value={undefined}
      />
      <button
        className="btn btn-primary"
        disabled={false}
        onClick={[Function]}
        style={
          Object {
            "marginLeft": 20,
            "outline": "none",
          }
        }
        type="button"
      >
        SEND
      </button>
    </div>
  </div>
</div>
`;

exports[`Rendering Layout renders MessagesArea correctly 1`] = `
<div
  style={
    Object {
      "backgroundColor": "white",
      "justifyContent": "center",
      "margin": 2,
      "maxWidth": "100%",
    }
  }
>
  <div
    style={
      Object {
        "display": "flex",
        "flex": 1,
        "flexDirection": "column",
        "height": "80vh",
        "overflowY": "scroll",
      }
    }
  />
</div>
`;

exports[`Rendering Layout renders NoMessagesComponent correctly 1`] = `
<div
  style={
    Object {
      "alignItems": "center",
      "display": "flex",
      "flex": 1,
      "fontFamily": "Roboto",
      "fontSize": 26,
      "justifyContent": "center",
    }
  }
>
  No chats yet!
</div>
`;

exports[`Rendering Layout renders NoMessagesFoundComponent correctly 1`] = `
<div
  style={
    Object {
      "alignItems": "center",
      "display": "flex",
      "flex": 1,
      "fontFamily": "Roboto",
      "fontSize": 16,
      "justifyContent": "center",
      "margin": 20,
    }
  }
>
  no messages found
</div>
`;

exports[`Rendering Layout renders ReceivedMessage correctly 1`] = `
<div
  style={
    Object {
      "alignItems": "center",
      "backgroundColor": "rgba(0,0,0,0.1)",
      "borderRadius": 10,
      "display": "flex",
      "flexDirection": "column",
      "fontFamily": "Roboto",
      "fontSize": 12,
      "fontWeight": "200",
      "justifyContent": "center",
      "margin": 20,
      "minHeight": "80px",
      "textAlign": "center",
      "width": "160px",
    }
  }
>
  <div
    style={
      Object {
        "padding": 10,
      }
    }
  >
    text
  </div>
  <div>
    31/12/1969 21:02
  </div>
</div>
`;

exports[`Rendering Layout renders SentMessage correctly 1`] = `
<div
  style={
    Object {
      "alignItems": "center",
      "backgroundColor": "#1dcaff",
      "borderRadius": 10,
      "color": "white",
      "display": "flex",
      "flexDirection": "column",
      "fontFamily": "Roboto",
      "fontSize": 12,
      "fontWeight": "200",
      "justifyContent": "center",
      "margin": 20,
      "marginLeft": "66vw",
      "minHeight": "80px",
      "textAlign": "center",
      "width": "160px",
    }
  }
>
  <div
    style={
      Object {
        "padding": 10,
      }
    }
  >
    text
  </div>
  <div>
    31/12/1969 21:02
  </div>
</div>
`;
