// Jest Snapshot v1, https://goo.gl/fbAQLP

exports[`Rendering Layout renders CenterSection correctly 1`] = `
<div
  style={
    Object {
      "display": "flex",
      "height": "100vh",
      "left": 0,
      "padding": 0,
      "right": 0,
      "width": "100vw",
    }
  }
/>
`;

exports[`Rendering Layout renders Screen correctly 1`] = `
<div
  style={
    Object {
      "alignItems": "center",
      "display": "flex",
      "flexDirection": "column",
      "height": "100vh",
      "justifyContent": "center",
      "left": 0,
      "margin": 0,
      "top": 0,
      "width": "100vw",
    }
  }
/>
`;

exports[`Rendering Layout renders TopHeader correctly 1`] = `
<div
  style={
    Object {
      "alignItems": "center",
      "backgroundColor": "#1dcaff",
      "display": "flex",
      "flexDirection": "row",
      "height": "60px",
      "justifyContent": "flex-end",
      "left": 0,
      "margin": 0,
      "right": 0,
      "top": 0,
      "width": "100vw",
    }
  }
/>
`;
